{
  "Background": {
    "Image": {
      "X": 0,
      "Y": 0,
      "ImageIndex": 0
    }
  },
  "Time": {
    "Hours": {
      "Tens": {
        "X": 18,
        "Y": 52,
        "ImageIndex": 1,
        "ImagesCount": 10
      },
      "Ones": {
        "X": 51,
        "Y": 52,
        "ImageIndex": 1,
        "ImagesCount": 10
      }
    },
    "Minutes": {
      "Tens": {
        "X": 101,
        "Y": 52,
        "ImageIndex": 1,
        "ImagesCount": 10
      },
      "Ones": {
        "X": 134,
        "Y": 52,
        "ImageIndex": 1,
        "ImagesCount": 10
      }
    }
  },
  "Activity": {
    "Steps": {
      "TopLeftX": 67,
      "TopLeftY": 158,
      "BottomRightX": 109,
      "BottomRightY": 33,
      "Alignment": 20,
      "Spacing": 2,
      "ImageIndex": 11,
      "ImagesCount": 10
    },
    "Calories": {
      "TopLeftX": 13,
      "TopLeftY": 159,
      "BottomRightX": 46,
      "BottomRightY": 168,
      "Alignment": 20,
      "Spacing": 2,
      "ImageIndex": 11,
      "ImagesCount": 10
    },
    "Pulse": {
      "TopLeftX": 135,
      "TopLeftY": 159,
      "BottomRightX": 159,
      "BottomRightY": 168,
      "Alignment": 20,
      "Spacing": 2,
      "ImageIndex": 11,
      "ImagesCount": 10
    }
  },
  "Date": {
    "MonthAndDay": {
      "Separate": {
        "Day": {
          "TopLeftX": 143,
          "TopLeftY": 31,
          "BottomRightX": 158,
          "BottomRightY": 40,
          "Alignment": 18,
          "Spacing": 2,
          "ImageIndex": 11,
          "ImagesCount": 10
        }
      },
      "TwoDigitsMonth": 1,
      "TwoDigitsDay": 1
    },
    "WeekDay": {
      "X": 111,
      "Y": 31,
      "ImageIndex": 21,
      "ImagesCount": 7
    }
  },
  "Weather": {
    "Temperature": {
      "Today": {
        "OneLine": {
          "Number": {
            "TopLeftX": 18,
            "TopLeftY": 31,
            "BottomRightX": 100,
            "BottomRightY": 31,
            "Alignment": 18,
            "Spacing": 2,
            "ImageIndex": 11,
            "ImagesCount": 10
          },
          "MinusSignImageIndex": 28,
          "DelimiterImageIndex": 30,
          "AppendDegreesForBoth": 0,
          "DegreesImageIndex": 29
        }
      }
    }
  },
  "Status": {
    "Bluetooth": {
      "Coordinates": {
        "X": 106,
        "Y": 5
      },
      "ImageIndexOn": 31,
      "ImageIndexOff": 32
    },
    "Alarm": {
      "Coordinates": {
        "X": 25,
        "Y": 7
      },
      "ImageIndex": 35
    },
    "Lock": {
      "Coordinates": {
        "X": 9,
        "Y": 7
      },
      "ImageIndex": 34
    },
    "DoNotDisturb": {
      "Coordinates": {
        "X": 41,
        "Y": 7
      },
      "ImageIndex": 33
    }
  },
  "Battery": {
    "Text": {
      "TopLeftX": 118,
      "TopLeftY": 7,
      "BottomRightX": 137,
      "BottomRightY": 16,
      "Alignment": 20,
      "Spacing": 1,
      "ImageIndex": 36,
      "ImagesCount": 10
    },
    "Icon": {
      "X": 149,
      "Y": 7,
      "ImageIndex": 46,
      "ImagesCount": 6
    }
  }
}