{
  "Background": {
    "Image": {
      "X": 0,
      "Y": 0,
      "ImageIndex": 0
    }
  },
  "Time": {
    "Hours": {
      "Tens": {
        "X": 94,
        "Y": 11,
        "ImageIndex": 1,
        "ImagesCount": 10
      },
      "Ones": {
        "X": 133,
        "Y": 11,
        "ImageIndex": 1,
        "ImagesCount": 10
      }
    },
    "Minutes": {
      "Tens": {
        "X": 94,
        "Y": 78,
        "ImageIndex": 1,
        "ImagesCount": 10
      },
      "Ones": {
        "X": 133,
        "Y": 78,
        "ImageIndex": 1,
        "ImagesCount": 10
      }
    }
  },
  "Activity": {
    "Steps": {
      "TopLeftX": 30,
      "TopLeftY": 51,
      "BottomRightX": 77,
      "BottomRightY": 64,
      "Alignment": 18,
      "Spacing": 2,
      "ImageIndex": 11,
      "ImagesCount": 10
    },
    "Calories": {
      "TopLeftX": 30,
      "TopLeftY": 16,
      "BottomRightX": 77,
      "BottomRightY": 29,
      "Alignment": 18,
      "Spacing": 2,
      "ImageIndex": 11,
      "ImagesCount": 10
    },
    "Pulse": {
      "TopLeftX": 30,
      "TopLeftY": 86,
      "BottomRightX": 77,
      "BottomRightY": 99,
      "Alignment": 18,
      "Spacing": 2,
      "ImageIndex": 11,
      "ImagesCount": 10
    },
    "Distance": {
      "Number": {
        "TopLeftX": 30,
        "TopLeftY": 121,
        "BottomRightX": 90,
        "BottomRightY": 134,
        "Alignment": 18,
        "Spacing": 2,
        "ImageIndex": 11,
        "ImagesCount": 10
      },
      "SuffixImageIndex": 29,
      "DecimalPointImageIndex": 30
    }
  },
  "Date": {
    "MonthAndDay": {
      "OneLine": {
        "Number": {
          "TopLeftX": 123,
          "TopLeftY": 151,
          "BottomRightX": 165,
          "BottomRightY": 164,
          "Alignment": 20,
          "Spacing": 2,
          "ImageIndex": 11,
          "ImagesCount": 10
        },
        "DelimiterImageIndex": 21
      },
      "TwoDigitsMonth": 0,
      "TwoDigitsDay": 1
    },
    "WeekDay": {
      "X": 85,
      "Y": 151,
      "ImageIndex": 22,
      "ImagesCount": 7
    }
  },
  "Status": {
    "Bluetooth": {
      "Coordinates": {
        "X": 41,
        "Y": 151
      },
      "ImageIndexOn": 31,
      "ImageIndexOff": 32
    }
  },
  "Battery": {
    "Icon": {
      "X": 10,
      "Y": 153,
      "ImageIndex": 33,
      "ImagesCount": 6
    }
  }
}